<?xml version="1.0" encoding="UTF-8"?>
<svg enable-background="new 0 0 1262.2 1262.2" version="1.1" viewBox="0 0 1262.2 1262.2" xml:space="preserve" xmlns="http://www.w3.org/2000/svg" id="Layer1">
<style type="text/css">
	.st0{display:none;}
	.st1{display:inline;}
	.st2{fill:#F09620;}
	.st3{fill:#17335B;}
	.st4{fill:#0D1C33;}
	.st5{fill:#FFFFFF;}
</style>

	<g style="display:none">
		<g style="display:inline">
			<path style="fill:#F09620" d="M1262.2,1137.5c0,68.6-56.1,124.7-124.7,124.7H124.7C56.1,1262.2,0,1206.1,0,1137.5V124.7     C0,56.1,56.1,0,124.7,0h1012.8c68.6,0,124.7,56.1,124.7,124.7V1137.5z"/>
		</g>
	</g>
	<path style="fill:#17335B" d="M965,1262.2H297.2C133.1,1262.2,0,1129.2,0,965V297.2C0,133.1,133.1,0,297.2,0H965   c164.1,0,297.2,133.1,297.2,297.2V965C1262.2,1129.2,1129.2,1262.2,965,1262.2z"/>
	<path style="fill:#0D1C33" d="m793 470.7c-19-8.8-57.2-11.9-89.2-16.4-18.6-2.6-42.7-12.8-59.7-25.8-15.2-11.6-55.5-48.9-98.6-19.6-31.6 21.4-85.1 81.5-20.1 196.1 26.6 46.9 77.7 79.4 129.9 103.5-2.6-1.7-5.3-3.4-8-5.2-29-19.3-56.7-37.7-79-73.4-43-69-31.4-147.4-15.2-163.6 0-0.1 14.8-17.3 40.5-20.9 21.3-3 39.6 7.9 48 12.6 74.5 41.4 125.9 9.6 200.4 62.5 5.9 4.2 13 9.7 20.9 16.8-4.7-7.6-9.1-17.2-12.6-22.9-8-12.8-38.6-35-57.3-43.7zm25.4 312.2c-7.3 28.8-94.5 54.1-100.7 93.2-2.8 17.6 21.1 25 18.1 42.9-4 24.2-42.2 24.8-45.2 45.9-3.3 23.2 52.6 38.5 40.1 70.5-9.2 23.5-4.6 44.8 20.7 67.1 8.8 7.8 15.2 13.6 19.8 17.9 6.1 5.7 6.4 15.2 0.8 21.3-5.6 6-17 5-22.1 4.3 24.1 9.5 44.4 11.5 50.2 4.6 21.9-26.1-37.6-35.2-32.2-75 3.9-28.5 29.4-36.5 26.1-58.5-4.1-27.3-46.6-36.3-43.6-51.1 2.9-14.5 44.2-10 50.8-29 5.7-16.5-22.4-29.1-21.6-49.5 1.5-39.2 107.5-49.4 108-78.3 0.5-26-84.9-49.2-136.8-63.3-0.1 0-0.1 0-0.2-0.1 41.5 14.9 70.7 25.6 67.8 37.1zm-22.7-531.3v43.6l72.5 40.3-72.5-83.9zm-63.7-107.3c-4.8 3.6-9.8 7.4-14.9 11.3 2.4-1.4 4.8-3.2 7.6-5.4 2.5-1.9 4.9-3.9 7.3-5.9zm92.6-48.1s-15.4 18.5-21.2 27.5c-5.5 8.7-15.2 18.3-22.4 32.1-0.9 1.8-11.6 33-9 37.6 2.2 3.9 7.4 13.9 7.4 13.9l4.4 12.2c3.7 10.5 91.9 106.2 127.3 147.3-27.5-38.9-54.9-77.7-82.4-116.6-5.8-7.3-20.6-28.1-22.4-58.6-2-34.5 13.9-59.1 19-66.3 15-23.9 20.2-38.1 15.6-42.6-7.1-7.2-38.3 9.5-93.5 50.1l1.5-0.9c25.2-13.5 75.7-35.7 75.7-35.7z"/>
	<path style="fill:#FFFFFF" d="m969.2 455.5c-6.6-15.9-28.5-50-45.2-73-2.3-3.1-6.8-8.6-12.9-15.7-35.4-41.1-123.6-136.8-127.3-147.3l-4.4-12.2s-5.2-10-7.4-13.9c-2.6-4.6 8.1-35.8 9-37.6 7.1-13.7 16.8-23.4 22.4-32.1 5.7-9 21.2-27.5 21.2-27.5s-50.5 22.2-75.6 35.8l-1.5 0.9c-5.5 3.2-10.5 7.3-15.4 11.4-2.4 2-4.8 4-7.2 5.9-2.9 2.2-5.2 4-7.6 5.4-2 1.2-4.1 2.1-6.6 2.8-5.7 1.5-8.6 0.4-17 1.6-6.9 1-11.5 2.6-13.6 3.3-25.3 7.8-74.3 7.5-74.3 7.5-31.8 0-201.3 26.4-294.8 161.9-44.1 63.9-54 128.4-59.2 164.3-3.2 22.5-10.6 89 12.6 179.5 86.3 335.5 457.1 465.3 484.7 469.4 0.2 0 0.5 0.1 0.8 0.1 5.1 0.7 16.6 1.8 22.1-4.3 5.7-6.1 5.3-15.6-0.8-21.3-4.6-4.3-11-10.1-19.8-17.9-25.3-22.3-29.9-43.6-20.7-67.1 12.5-32-43.4-47.3-40.1-70.5 3-21.2 41.1-21.8 45.2-45.9 3-17.9-20.8-25.3-18.1-42.9 6.2-39.1 93.3-64.3 100.7-93.2 2.9-11.5-26.3-22.2-67.9-37-28.1-10-61.8-21.9-95.1-37.3-52.2-24.1-103.3-56.6-129.9-103.5-65-114.7-11.5-174.7 20.1-196.1 43.1-29.2 83.4 8 98.6 19.6 16.9 13 41.1 23.2 59.7 25.8 32 4.4 70.2 7.6 89.2 16.4 18.7 8.6 49.3 30.8 57.4 43.7 3.5 5.7 7.9 15.3 12.6 22.9 3.7 5.9 7.6 10.6 11.6 11.3 8.4 1.4 33.7 2.3 56.5-6.6 7.2-2.8 12.9-4.3 17.4-8.8 1.6-1.5 2.6-3 5.7-5.8 5.4-5 6.9-4.9 8.7-7.6 1.2-1.9 2.4-5.5 2.3-12.8-0.1-13.3 3.4-16.1 5.3-19.7s5.3-15.9-1.4-31.9zm-173.5-160.3v-43.6l72.4 83.9-72.4-40.3z"/>


</svg>
